<svg id="apple" xmlns="http://www.w3.org/2000/svg" width="84.093" height="84.093" viewBox="0 0 84.093 84.093">
  <defs>
    <style>
      .cls-1 {
        opacity: 0.3;
        mix-blend-mode: multiply;
        isolation: isolate;
      }

      .cls-2 {
        fill: #ff66a4;
      }
    </style>
  </defs>
  <path id="Path_16" data-name="Path 16" class="cls-1" d="M161.6,15.569a42.1,42.1,0,0,1-42.049-42.046A42.093,42.093,0,0,1,161.6-68.524a42.091,42.091,0,0,1,42.044,42.047A42.094,42.094,0,0,1,161.6,15.569Z" transform="translate(-119.554 68.524)"/>
  <path id="Path_17" data-name="Path 17" class="cls-2" d="M153.41-66.335a31.667,31.667,0,0,0-31.666,31.669A31.666,31.666,0,0,0,153.41-3a31.665,31.665,0,0,0,31.661-31.664A31.666,31.666,0,0,0,153.41-66.335Zm1.548,19.479a6.808,6.808,0,0,1,4.414-2.175,6.17,6.17,0,0,1-1.558,4.586,5.655,5.655,0,0,1-4.443,2.033h0A5.871,5.871,0,0,1,154.958-46.856Zm8.568,22.987c-1.249,1.749-2.542,3.493-4.581,3.522-2.008.039-2.65-1.137-4.948-1.137s-3.008,1.1-4.909,1.176c-1.965.074-3.469-1.891-4.728-3.63-2.576-3.566-4.541-10.082-1.9-14.477a7.378,7.378,0,0,1,6.2-3.606c1.935-.029,3.762,1.254,4.943,1.254s3.4-1.543,5.736-1.318a7.111,7.111,0,0,1,5.477,2.842,6.5,6.5,0,0,0-3.233,5.477,6.4,6.4,0,0,0,4.022,5.81A15.687,15.687,0,0,1,163.526-23.869Z" transform="translate(-111.361 76.714)"/>
</svg>
