<svg id="instagram" xmlns="http://www.w3.org/2000/svg" width="84.093" height="84.093" viewBox="0 0 84.093 84.093">
  <defs>
    <style>
      .cls-1 {
        opacity: 0.3;
        mix-blend-mode: multiply;
        isolation: isolate;
      }

      .cls-2 {
        fill: #ff66a4;
      }
    </style>
  </defs>
  <path id="Path_3" data-name="Path 3" class="cls-1" d="M99.8-40.669A42.091,42.091,0,0,1,57.759-82.715,42.1,42.1,0,0,1,99.8-124.762a42.1,42.1,0,0,1,42.049,42.047A42.092,42.092,0,0,1,99.8-40.669Z" transform="translate(-57.759 124.762)"/>
  <g id="Group_1" data-name="Group 1" transform="translate(10.382 10.382)">
    <path id="Path_4" data-name="Path 4" class="cls-2" d="M85.242-115.373a3.959,3.959,0,0,0-.986-1.479,4.061,4.061,0,0,0-1.517-.962,7.6,7.6,0,0,0-2.451-.446c-1.394-.061-1.811-.071-5.338-.071s-3.94,0-5.334.066v0a7.477,7.477,0,0,0-2.451.446,4.1,4.1,0,0,0-1.517.962,3.959,3.959,0,0,0-.986,1.479,6.953,6.953,0,0,0-.45,2.385c-.066,1.356-.081,1.764-.081,5.2s.014,3.84.081,5.2a6.959,6.959,0,0,0,.45,2.389,3.994,3.994,0,0,0,.986,1.479,4.221,4.221,0,0,0,1.517.962,7.585,7.585,0,0,0,2.456.441c1.389.062,1.806.076,5.334.076s3.944-.014,5.334-.076a7.579,7.579,0,0,0,2.451-.441,4.181,4.181,0,0,0,1.517-.962,4,4,0,0,0,.986-1.479A6.852,6.852,0,0,0,85.7-102.6c.066-1.356.076-1.764.076-5.2s-.009-3.84-.076-5.2A6.846,6.846,0,0,0,85.242-115.373ZM74.954-101.188h0a6.693,6.693,0,0,1-6.775-6.609v0h0a6.688,6.688,0,0,1,6.775-6.6,6.687,6.687,0,0,1,6.779,6.6A6.692,6.692,0,0,1,74.954-101.188Zm7.04-11.9a1.567,1.567,0,0,1-1.56-1.574h0a1.564,1.564,0,0,1,1.579-1.541,1.557,1.557,0,0,1,1.536,1.579A1.555,1.555,0,0,1,81.994-113.083Z" transform="translate(-43.288 139.46)"/>
    <path id="Path_5" data-name="Path 5" class="cls-2" d="M91.61-122.572A31.665,31.665,0,0,0,59.949-90.909,31.666,31.666,0,0,0,91.61-59.24a31.667,31.667,0,0,0,31.666-31.669A31.666,31.666,0,0,0,91.61-122.572Zm13.56,37.146a9.7,9.7,0,0,1-.632,3.224,6.507,6.507,0,0,1-1.577,2.352,6.64,6.64,0,0,1-2.415,1.533,10.19,10.19,0,0,1-3.312.617c-1.455.064-1.915.078-5.624.078s-4.164-.01-5.619-.073a10.319,10.319,0,0,1-3.312-.617,6.768,6.768,0,0,1-2.415-1.534A6.5,6.5,0,0,1,78.687-82.2a9.549,9.549,0,0,1-.632-3.224c-.069-1.421-.083-1.871-.083-5.482s.015-4.061.083-5.477a9.553,9.553,0,0,1,.632-3.224,6.566,6.566,0,0,1,1.577-2.356,6.69,6.69,0,0,1,2.415-1.529,10.193,10.193,0,0,1,3.312-.622c1.455-.064,1.915-.078,5.619-.078s4.169.015,5.624.078a10.189,10.189,0,0,1,3.312.617,6.7,6.7,0,0,1,2.415,1.533,6.591,6.591,0,0,1,1.577,2.352,9.7,9.7,0,0,1,.632,3.228c.068,1.416.083,1.867.083,5.477S105.239-86.847,105.17-85.426Z" transform="translate(-59.949 122.572)"/>
    <path id="Path_6" data-name="Path 6" class="cls-2" d="M70-117.012h-.118a4.345,4.345,0,0,0-4.4,4.281v0a4.4,4.4,0,0,0,4.286,4.513,4.4,4.4,0,0,0,4.518-4.286A4.4,4.4,0,0,0,70-117.012Z" transform="translate(-38.223 144.399)"/>
  </g>
</svg>
