<?xml version="1.0" encoding="utf-8"?>
<!-- Generator: Adobe Illustrator 25.1.0, SVG Export Plug-In . SVG Version: 6.00 Build 0)  -->
<svg version="1.1" id="Layer_1" xmlns="http://www.w3.org/2000/svg" xmlns:xlink="http://www.w3.org/1999/xlink" x="0px" y="0px"
	 viewBox="0 0 1024 1024" style="enable-background:new 0 0 1024 1024;" xml:space="preserve">
<style type="text/css">
	.st0{opacity:0.8;}
	.st1{fill:url(#SVGID_1_);}
	.st2{fill:url(#SVGID_2_);}
	.st3{fill:url(#SVGID_3_);}
	.st4{fill:#A3EAA6;}
	.st5{fill:url(#SVGID_4_);}
	.st6{fill:url(#SVGID_5_);}
	.st7{fill:#2AC7E8;}
	.st8{fill:url(#SVGID_6_);}
	.st9{fill:#8EC78F;}
	.st10{fill:#00EBFF;}
	.st11{fill:#89FFDA;}
	.st12{fill:url(#SVGID_7_);}
	.st13{fill:url(#SVGID_8_);}
	.st14{fill:url(#SVGID_9_);}
	.st15{fill:url(#SVGID_10_);}
	.st16{fill:url(#SVGID_11_);}
	.st17{fill:url(#SVGID_12_);}
	.st18{fill:url(#SVGID_13_);}
</style>
<g>
	<g class="st0">
		
			<linearGradient id="SVGID_1_" gradientUnits="userSpaceOnUse" x1="408.6779" y1="156.9998" x2="408.6779" y2="500.9349" gradientTransform="matrix(0.8845 -0.4666 -0.4666 -0.8845 288.0135 993.5233)">
			<stop  offset="0" style="stop-color:#9AFFFF;stop-opacity:0"/>
			<stop  offset="1" style="stop-color:#9AFFFF;stop-opacity:0.7"/>
		</linearGradient>
		<polygon class="st1" points="732.8,568.6 414.4,749.3 359.9,394.5 491.5,319.8 		"/>
		
			<linearGradient id="SVGID_2_" gradientUnits="userSpaceOnUse" x1="408.6779" y1="158.6422" x2="408.6779" y2="500.2446" gradientTransform="matrix(0.8845 -0.4666 -0.4666 -0.8845 288.0135 993.5233)">
			<stop  offset="0" style="stop-color:#9AFFFF;stop-opacity:0"/>
			<stop  offset="1" style="stop-color:#9AFFFF;stop-opacity:0.7"/>
		</linearGradient>
		<polygon class="st2" points="686.1,595.1 461.1,722.9 379.2,383.6 472.2,330.7 		"/>
		
			<linearGradient id="SVGID_3_" gradientUnits="userSpaceOnUse" x1="408.6351" y1="160.9713" x2="408.6351" y2="499.2491" gradientTransform="matrix(0.8845 -0.4666 -0.4666 -0.8845 288.0135 993.5233)">
			<stop  offset="0" style="stop-color:#9AFFFF;stop-opacity:0"/>
			<stop  offset="1" style="stop-color:#9AFFFF;stop-opacity:0.7"/>
		</linearGradient>
		<polygon class="st3" points="620.4,632.3 526.6,685.6 406.3,368.2 445.1,346.2 		"/>
	</g>
	
		<ellipse transform="matrix(0.8845 -0.4666 0.4666 0.8845 -117.3278 238.0352)" class="st4" cx="422" cy="356" rx="72.7" ry="25.8"/>
	
		<ellipse transform="matrix(0.8845 -0.4666 0.4666 0.8845 -115.2801 236.1888)" class="st4" cx="419.3" cy="350.9" rx="136.9" ry="25.8"/>
	
		<linearGradient id="SVGID_4_" gradientUnits="userSpaceOnUse" x1="392.0039" y1="518.5244" x2="451.8286" y2="417.3141" gradientTransform="matrix(0.8845 -0.4666 -0.4666 -0.8845 288.0135 993.5233)">
		<stop  offset="0" style="stop-color:#9AFFFF;stop-opacity:0"/>
		<stop  offset="1" style="stop-color:#9AFFFF"/>
	</linearGradient>
	<path class="st5" d="M491.7,291.1c-23.4,7.7-53.1,20.4-84.4,36.9c-66.8,35.3-115.6,74.1-109,86.7c1.4,2.7,5.2,3.9,10.9,4
		c24.3-4.7,53.2-15.1,82.6-30.6C449.6,357.6,490.2,317.2,491.7,291.1z"/>
	
		<linearGradient id="SVGID_5_" gradientUnits="userSpaceOnUse" x1="279.1552" y1="497.447" x2="552.8564" y2="497.447" gradientTransform="matrix(0.8845 -0.4666 -0.4666 -0.8845 288.0135 993.5233)">
		<stop  offset="0" style="stop-color:#9AFFFF;stop-opacity:0"/>
		<stop  offset="1" style="stop-color:#9AFFFF"/>
	</linearGradient>
	<path class="st6" d="M533.6,283.3c1,0.6,1.8,1.4,2.3,2.3c6.6,12.6-40.8,50.7-106.1,85.2s-123.5,52.1-130.2,39.5
		c-0.5-0.9-0.7-2-0.6-3.3c-1.5,3.1-1.8,5.7-0.8,7.7c6.6,12.6,66.2-5.8,133.1-41s115.6-74.1,109-86.7
		C539.3,285.1,537,283.8,533.6,283.3z"/>
	<path class="st7" d="M413.6,340c20.7-10.9,39.5-22.5,55.4-33.6c-0.2-0.4-0.4-0.8-0.6-1.2c-10.2-19.5-44.2-21.7-75.9-5
		s-49,46-38.7,65.5c0.2,0.4,0.4,0.8,0.6,1.1C372.8,359.9,392.9,350.9,413.6,340z"/>
	
		<linearGradient id="SVGID_6_" gradientUnits="userSpaceOnUse" x1="363.7184" y1="543.6924" x2="475.2882" y2="543.6924" gradientTransform="matrix(0.8845 -0.4666 -0.4666 -0.8845 288.0135 993.5233)">
		<stop  offset="0" style="stop-color:#9AFFFF;stop-opacity:0"/>
		<stop  offset="1" style="stop-color:#9AFFFF"/>
	</linearGradient>
	<path class="st8" d="M393.7,301.6c-20.3,10.7-34.1,27.1-37.2,42.1c4.6-13.7,17.7-28.1,36.1-37.8c28-14.8,58-13.2,68.3,3.2
		c0.8-0.6,1.7-1.2,2.5-1.8c-0.1-0.3-0.3-0.7-0.5-1.1C453.4,288.5,422.5,286.4,393.7,301.6z"/>
	<path class="st9" d="M359.8,328.3L359.8,328.3c-8.8,12.9-11.5,26.6-5.9,37.3c0.2,0.4,0.4,0.8,0.6,1.1c18.2-6.8,38.4-15.8,59.1-26.7
		c7.8-4.1,15.4-8.3,22.6-12.6c-59.2,31-79.5,32-79.5,32C349.1,347.6,359.8,328.3,359.8,328.3z"/>
	<g>
		
			<ellipse transform="matrix(0.8845 -0.4666 0.4666 0.8845 -77.7506 276.0397)" class="st10" cx="518.6" cy="295" rx="6.7" ry="3.8"/>
		
			<ellipse transform="matrix(0.8845 -0.4666 0.4666 0.8845 -77.2304 275.575)" class="st11" cx="517.9" cy="293.7" rx="5.5" ry="4.6"/>
		
			<linearGradient id="SVGID_7_" gradientUnits="userSpaceOnUse" x1="524.8871" y1="512.7309" x2="534.735" y2="512.7309" gradientTransform="matrix(0.8845 -0.4666 -0.4666 -0.8845 288.0135 993.5233)">
			<stop  offset="0" style="stop-color:#9AFFFF;stop-opacity:0"/>
			<stop  offset="1" style="stop-color:#9AFFFF"/>
		</linearGradient>
		<path class="st12" d="M516,290.1c-2.4,1.3-3.5,3.9-2.5,5.9l0,0c1.3-0.1,2.8-0.3,4.3-0.7c1.8-0.5,3.4-1.1,4.7-1.9
			c0.1-0.7,0-1.4-0.3-2C521.2,289.5,518.4,288.9,516,290.1z"/>
	</g>
	<g>
		
			<ellipse transform="matrix(0.8845 -0.4666 0.4666 0.8845 -96.1522 263.0652)" class="st10" cx="483.2" cy="325.7" rx="6.7" ry="3.8"/>
		
			<ellipse transform="matrix(0.8845 -0.4666 0.4666 0.8845 -95.6143 262.5846)" class="st11" cx="482.5" cy="324.4" rx="5.5" ry="4.6"/>
		
			<linearGradient id="SVGID_8_" gradientUnits="userSpaceOnUse" x1="479.2498" y1="502.1809" x2="489.0976" y2="502.1809" gradientTransform="matrix(0.8845 -0.4666 -0.4666 -0.8845 288.0135 993.5233)">
			<stop  offset="0" style="stop-color:#9AFFFF;stop-opacity:0"/>
			<stop  offset="1" style="stop-color:#9AFFFF"/>
		</linearGradient>
		<path class="st13" d="M480.5,320.8c-2.4,1.3-3.5,3.9-2.5,5.9l0,0c1.3-0.1,2.8-0.3,4.3-0.7c1.8-0.5,3.4-1.1,4.7-1.9
			c0.1-0.7,0-1.4-0.3-2C485.8,320.1,483,319.5,480.5,320.8z"/>
	</g>
	<g>
		
			<ellipse transform="matrix(0.8845 -0.4666 0.4666 0.8845 -113.4515 249.0781)" class="st10" cx="446.3" cy="353.6" rx="6.7" ry="3.8"/>
		
			<ellipse transform="matrix(0.8845 -0.4666 0.4666 0.8845 -112.9136 248.5977)" class="st11" cx="445.6" cy="352.3" rx="5.5" ry="4.6"/>
		
			<linearGradient id="SVGID_9_" gradientUnits="userSpaceOnUse" x1="433.6025" y1="494.6703" x2="443.4504" y2="494.6703" gradientTransform="matrix(0.8845 -0.4666 -0.4666 -0.8845 288.0135 993.5233)">
			<stop  offset="0" style="stop-color:#9AFFFF;stop-opacity:0"/>
			<stop  offset="1" style="stop-color:#9AFFFF"/>
		</linearGradient>
		<path class="st14" d="M443.7,348.7c-2.4,1.3-3.5,3.9-2.5,5.9l0,0c1.3-0.1,2.8-0.3,4.3-0.7c1.8-0.5,3.4-1.1,4.7-1.9
			c0.1-0.7,0-1.4-0.3-2C448.9,348,446.1,347.5,443.7,348.7z"/>
	</g>
	<g>
		
			<ellipse transform="matrix(0.8845 -0.4666 0.4666 0.8845 -128.036 232.7066)" class="st10" cx="405.9" cy="374.9" rx="6.7" ry="3.8"/>
		
			<ellipse transform="matrix(0.8845 -0.4666 0.4666 0.8845 -127.5158 232.2419)" class="st11" cx="405.2" cy="373.6" rx="5.5" ry="4.6"/>
		
			<linearGradient id="SVGID_10_" gradientUnits="userSpaceOnUse" x1="387.9622" y1="494.6517" x2="397.8101" y2="494.6517" gradientTransform="matrix(0.8845 -0.4666 -0.4666 -0.8845 288.0135 993.5233)">
			<stop  offset="0" style="stop-color:#9AFFFF;stop-opacity:0"/>
			<stop  offset="1" style="stop-color:#9AFFFF"/>
		</linearGradient>
		<path class="st15" d="M403.3,370c-2.4,1.3-3.5,3.9-2.5,5.9l0,0c1.3-0.1,2.8-0.3,4.3-0.7c1.8-0.5,3.4-1.1,4.7-1.9
			c0.1-0.7,0-1.4-0.3-2C408.5,369.3,405.7,368.8,403.3,370z"/>
	</g>
	<g>
		
			<ellipse transform="matrix(0.8845 -0.4666 0.4666 0.8845 -139.955 213.9308)" class="st10" cx="362" cy="389.6" rx="6.7" ry="3.8"/>
		
			<ellipse transform="matrix(0.8845 -0.4666 0.4666 0.8845 -139.417 213.4499)" class="st11" cx="361.3" cy="388.3" rx="5.5" ry="4.6"/>
		
			<linearGradient id="SVGID_11_" gradientUnits="userSpaceOnUse" x1="342.3223" y1="502.1894" x2="352.1702" y2="502.1894" gradientTransform="matrix(0.8845 -0.4666 -0.4666 -0.8845 288.0135 993.5233)">
			<stop  offset="0" style="stop-color:#9AFFFF;stop-opacity:0"/>
			<stop  offset="1" style="stop-color:#9AFFFF"/>
		</linearGradient>
		<path class="st16" d="M359.4,384.7c-2.4,1.3-3.5,3.9-2.5,5.9l0,0c1.3-0.1,2.8-0.3,4.3-0.7c1.8-0.5,3.4-1.1,4.7-1.9
			c0.1-0.7,0-1.4-0.3-2C364.6,384,361.8,383.4,359.4,384.7z"/>
	</g>
	<g>
		
			<ellipse transform="matrix(0.8845 -0.4666 0.4666 0.8845 -150.7559 194.1605)" class="st10" cx="316.7" cy="401.5" rx="6.7" ry="3.8"/>
		
			<ellipse transform="matrix(0.8845 -0.4666 0.4666 0.8845 -150.2357 193.6959)" class="st11" cx="316" cy="400.2" rx="5.5" ry="4.6"/>
		
			<linearGradient id="SVGID_12_" gradientUnits="userSpaceOnUse" x1="296.6756" y1="512.7229" x2="306.5235" y2="512.7229" gradientTransform="matrix(0.8845 -0.4666 -0.4666 -0.8845 288.0135 993.5233)">
			<stop  offset="0" style="stop-color:#9AFFFF;stop-opacity:0"/>
			<stop  offset="1" style="stop-color:#9AFFFF"/>
		</linearGradient>
		<path class="st17" d="M314.2,396.6c-2.4,1.3-3.5,3.9-2.5,5.9l0,0c1.3-0.1,2.8-0.3,4.3-0.7c1.8-0.5,3.4-1.1,4.7-1.9
			c0.1-0.7,0-1.4-0.3-2C319.3,395.9,316.6,395.4,314.2,396.6z"/>
	</g>
	
		<linearGradient id="SVGID_13_" gradientUnits="userSpaceOnUse" x1="357.0657" y1="542.7116" x2="427.4577" y2="542.7116" gradientTransform="matrix(0.8845 -0.4666 -0.4666 -0.8845 288.0135 993.5233)">
		<stop  offset="0" style="stop-color:#9AFFFF;stop-opacity:0"/>
		<stop  offset="1" style="stop-color:#9AFFFF"/>
	</linearGradient>
	<path class="st18" d="M358.6,362c0,0,20-6.1,44.2-21c0,0-8-26.4,1-44C403.8,297,349.8,318.4,358.6,362z"/>
</g>
</svg>
