<svg id="reddit_Hover_State_" data-name="reddit (Hover State)" xmlns="http://www.w3.org/2000/svg" width="84.093" height="84.093" viewBox="0 0 84.093 84.093">
  <defs>
    <style>
      .cls-1 {
        opacity: 0.3;
        mix-blend-mode: multiply;
        isolation: isolate;
      }

      .cls-2 {
        fill: #ffdf56;
      }
    </style>
  </defs>
  <g id="Group_13" data-name="Group 13">
    <ellipse id="Ellipse_2" data-name="Ellipse 2" class="cls-1" cx="42.046" cy="42.046" rx="42.046" ry="42.046"/>
  </g>
  <path id="Icon_awesome-reddit" data-name="Icon awesome-reddit" class="cls-2" d="M115.958,1.671a3.176,3.176,0,0,1-3.194-3.154,3.173,3.173,0,0,1,3.154-3.194,3.173,3.173,0,0,1,3.194,3.154v.04A3.174,3.174,0,0,1,115.958,1.671Zm38.8-6.348a31.8,31.8,0,0,1-31.808,31.808A31.8,31.8,0,0,1,91.139-4.677a31.8,31.8,0,0,1,31.808-31.808A31.8,31.8,0,0,1,154.755-4.677ZM137.786-9.96a4.259,4.259,0,0,0-3.049,1.283,20.724,20.724,0,0,0-11.044-3.413l2.234-10.044,7.1,1.6a3.162,3.162,0,0,0,3.154,3.159,3.2,3.2,0,0,0,3.219-3.174,3.19,3.19,0,0,0-3.169-3.214,3.2,3.2,0,0,0-2.885,1.766l-7.85-1.741a.759.759,0,0,0-.886.562l-2.448,11.084A20.886,20.886,0,0,0,111.2-8.652a4.249,4.249,0,0,0-3.094-1.308,4.235,4.235,0,0,0-1.846,8.054,9.2,9.2,0,0,0-.219,1.99c0,6.746,7.591,12.208,16.929,12.208,9.377,0,16.969-5.462,16.969-12.208a7.962,7.962,0,0,0-.244-2.03,4.231,4.231,0,0,0-1.91-8.014Zm-8.835,14.9c-2.333,2.333-9.76,2.293-12,0a.772.772,0,0,0-1.065,0,.744.744,0,0,0-.04,1.06l.04.04c2.925,2.925,11.193,2.925,14.133,0a.748.748,0,0,0,.04-1.06l-.04-.04A.772.772,0,0,0,128.951,4.944Zm.985-9.621a3.176,3.176,0,0,0-3.154,3.194,3.176,3.176,0,0,0,3.194,3.154,3.174,3.174,0,0,0,3.154-3.154,3.168,3.168,0,0,0-3.144-3.194Z" transform="translate(-80.902 46.723)"/>
</svg>
