<svg id="twitter" xmlns="http://www.w3.org/2000/svg" width="84.09" height="84.09" viewBox="0 0 84.09 84.09">
  <defs>
    <style>
      .cls-1 {
        opacity: 0.3;
        mix-blend-mode: multiply;
        isolation: isolate;
      }

      .cls-2 {
        fill: #ff66a4;
      }
    </style>
  </defs>
  <circle id="Ellipse_1" data-name="Ellipse 1" class="cls-1" cx="42.045" cy="42.045" r="42.045"/>
  <path id="Path_23" data-name="Path 23" class="cls-2" d="M122.25-94.13A31.283,31.283,0,0,0,90.97-62.846a31.282,31.282,0,0,0,31.28,31.28,31.283,31.283,0,0,0,31.285-31.28A31.284,31.284,0,0,0,122.25-94.13Zm13.774,22.539a9.417,9.417,0,0,1-1.917,2.26l-.886.721a16.608,16.608,0,0,1-.261,3.732c-1.408,6.524-5.15,10.948-11.069,12.85a16.568,16.568,0,0,1-8,.339,20.634,20.634,0,0,1-3.32-1.118,13.325,13.325,0,0,1-1.6-.847l-.494-.31a8.669,8.669,0,0,0,1.805.068c.557-.092,1.1-.068,1.612-.179a11.473,11.473,0,0,0,3.393-1.258,6.3,6.3,0,0,0,1.529-1.031,4.659,4.659,0,0,1-1.679-.315,5.763,5.763,0,0,1-3.586-3.717c.552.063,2.149.213,2.526-.111a4.034,4.034,0,0,1-1.849-.765,5.612,5.612,0,0,1-2.657-4.975l.576.285a6.271,6.271,0,0,0,1.186.339,1.731,1.731,0,0,0,.721.068c-.281-.339-.741-.566-1.026-.929a6.059,6.059,0,0,1-1.268-5.27,6.836,6.836,0,0,1,.6-1.515l.024.015a3.807,3.807,0,0,0,.513.6A10.651,10.651,0,0,0,112.584-71a16.471,16.471,0,0,0,6.906,3.431,10.666,10.666,0,0,0,2.536.339,5.545,5.545,0,0,1,.029-2.73,5.7,5.7,0,0,1,3.2-3.9,6.305,6.305,0,0,1,1.254-.4l.7-.087a5.743,5.743,0,0,1,4.467,1.825,8.794,8.794,0,0,0,2.9-1.007l.707-.392a5.817,5.817,0,0,1-1.834,2.725,2.571,2.571,0,0,1-.619.45v.014a10.354,10.354,0,0,0,3.2-.886Z" transform="translate(-79.656 105.443)"/>
</svg>
