<svg id="unknown" xmlns="http://www.w3.org/2000/svg" width="84.093" height="84.093" viewBox="0 0 84.093 84.093">
  <defs>
    <style>
      .cls-1 {
        opacity: 0.3;
        mix-blend-mode: multiply;
        isolation: isolate;
      }

      .cls-2 {
        fill: #ff66a4;
      }
    </style>
  </defs>
  <path id="Path_11" data-name="Path 11" class="cls-1" d="M161.6-12.227a42.1,42.1,0,0,1-42.049-42.049A42.094,42.094,0,0,1,161.6-96.32a42.093,42.093,0,0,1,42.044,42.044A42.1,42.1,0,0,1,161.6-12.227Z" transform="translate(-119.554 96.32)"/>
  <path id="Path_12" data-name="Path 12" class="cls-2" d="M153.435-94.133a31.716,31.716,0,0,0-31.7,31.7,31.674,31.674,0,0,0,31.7,31.646,31.632,31.632,0,0,0,31.647-31.646A31.674,31.674,0,0,0,153.435-94.133ZM172.384-50.2h-4.517c-1.715,0-2.219-1.372-5.286-4.438-2.684-2.582-3.831-2.92-4.5-2.92-1.44,0-1.176.485-1.176,5.6,0,1.112-.353,1.754-3.228,1.754-4.781,0-10.043-2.9-13.776-8.264-5.6-7.848-7.133-13.785-7.133-14.981,0-.676.26-1.283,1.548-1.283h4.512c1.156,0,1.6.51,2.038,1.759,2.209,6.437,5.932,12.061,7.466,12.061.578,0,.838-.269.838-1.725v-6.652c-.171-3.067-1.793-3.317-1.793-4.4a1.088,1.088,0,0,1,1.147-1.039h7.1c.95,0,1.274.514,1.274,1.666v8.945c0,.955.436,1.293.72,1.293.573,0,1.058-.338,2.106-1.386a37.79,37.79,0,0,0,5.551-9.234,1.941,1.941,0,0,1,1.964-1.283h4.512c1.367,0,1.651.705,1.367,1.666-.569,2.626-6.08,10.386-6.09,10.39-.475.769-.666,1.151,0,2.008.265.367,6.065,5.874,6.922,8.549C174.324-50.842,173.672-50.2,172.384-50.2Z" transform="translate(-111.376 104.501)"/>
</svg>
